
 File : amber_a.dms
 Created with DMS version 1.11 Evaluation
 Creation date : Fri Mar  1 09:24:29 1996
 Lowest track in archive : 0
 Highest track in archive : 79
 Packed data size : 417053
 Unpacked data size : 901120
 Disk type of archive : AmigaOS 1.0 OFS
 Compression mode used : HEAVY2
 General info : None
 Info Header CRC : CA94

 Track   Plength  Ulength  Cmode   USUM  HCRC  DCRC Cflag
 ------  -------  -------  ------  ----  ----  ---- -----
    0     10415    11264   HEAVY2  A378  21C8  FBFA    7
    1     10596    11264   HEAVY2  5A02  97C8  C024    5
    2     10522    11264   HEAVY2  6DDB  A647  F6BA    1
    3      4656    11264   HEAVY2  F137  8DDC  0072    5
    4      5738    11264   HEAVY2  94EC  7DDF  DB40    5
    5      4458    11264   HEAVY2  0285  B564  2758    5
    6      5279    11264   HEAVY2  6D70  2C21  B03F    5
    7      3598    11264   HEAVY2  FC49  CD27  2575    7
    8      1231    11264   HEAVY2  B264  A66F  73D4    5
    9      1324    11264   HEAVY2  34E3  A207  B084    5
   10       783    11264   HEAVY2  F323  A54B  E953    5
   11      1245    11264   HEAVY2  6DB8  4C1C  E012    5
   12       345    11264   HEAVY2  6DA8  2278  AB7B    5
   13      2079    11264   HEAVY2  4A0D  C133  7C8B    5
   14      3468    11264   HEAVY2  B5F6  7741  3187    5
   15         4    11264   HEAVY2  0000  F0FF  2F6D    5
   16         2    11264   HEAVY2  0000  66C0  781A    5
   17         2    11264   HEAVY2  0000  A6B2  C01B    5
   18         2    11264   HEAVY2  0000  A7F1  C01B    5
   19         2    11264   HEAVY2  0000  A730  C01B    5
   20         2    11264   HEAVY2  0000  A577  C01B    5
   21         2    11264   HEAVY2  0000  A5B6  C01B    5
   22         2    11264   HEAVY2  0000  A4F5  C01B    5
   23         2    11264   HEAVY2  0000  A434  C01B    5
   24         2    11264   HEAVY2  0000  A07B  C01B    5
   25         2    11264   HEAVY2  0000  A0BA  C01B    5
   26         2    11264   HEAVY2  0000  A1F9  C01B    5
   27         2    11264   HEAVY2  0000  A138  C01B    5
   28         2    11264   HEAVY2  0000  A37F  C01B    5
   29         2    11264   HEAVY2  0000  A3BE  C01B    5
   30         2    11264   HEAVY2  0000  A2FD  C01B    5
   31         2    11264   HEAVY2  0000  A23C  C01B    5
   32         2    11264   HEAVY2  0000  B243  C01B    5
   33         2    11264   HEAVY2  0000  B282  C01B    5
   34         2    11264   HEAVY2  0000  B3C1  C01B    5
   35         2    11264   HEAVY2  0000  B300  C01B    5
   36         2    11264   HEAVY2  0000  B147  C01B    5
   37         2    11264   HEAVY2  0000  B186  C01B    5
   38         2    11264   HEAVY2  0000  B0C5  C01B    5
   39         2    11264   HEAVY2  0000  B004  C01B    5
   40      4965    11264   HEAVY2  38C4  13FC  71AD    5
   41      9790    11264   HEAVY2  3F79  1308  31C6    5
   42       107    11264   HEAVY2  10F0  22FD  D38E    5
   43      4781    11264   HEAVY2  EC17  959E  F9A1    5
   44      5149    11264   HEAVY2  86EA  AE68  A486    5
   45      4411    11264   HEAVY2  43C3  83DB  BB4E    5
   46      3737    11264   HEAVY2  1109  CA30  FCC4    5
   47      4438    11264   HEAVY2  CB7D  4C1D  3F80    7
   48      3950    11264   HEAVY2  A780  81FF  A4D2    5
   49      4575    11264   HEAVY2  93C5  90C4  A262    5
   50      4331    11264   HEAVY2  13D3  082D  5147    5
   51      6645    11264   HEAVY2  C3FE  3D70  F66B    5
   52      9926    11264   HEAVY2  E62A  1688  D7A3    5
   53     10858    11264   HEAVY2  9205  475C  CF54    1
   54     10931    11264   HEAVY2  A78B  8CE0  F96C    1
   55     10569    11264   HEAVY2  52B6  1B11  322B    7
   56     10648    11264   HEAVY2  E598  1FB8  5975    1
   57     10483    11264   HEAVY2  6BDC  BBBD  441F    1
   58     10261    11264   HEAVY2  BEDD  714A  6620    5
   59     10756    11264   HEAVY2  65E4  C067  E2F4    1
   60     10896    11264   HEAVY2  B4AC  9EFB  053D    3
   61     10739    11264   HEAVY2  0061  BE7F  F352    1
   62     10511    11264   HEAVY2  8CB5  B777  CF86    5
   63     10736    11264   HEAVY2  1265  6DBC  15B9    1
   64     10729    11264   HEAVY2  F17F  B1BB  2742    1
   65     10779    11264   HEAVY2  8CB4  2FAB  A154    7
   66     10785    11264   HEAVY2  DD97  65A8  C374    1
   67      6920    11264   HEAVY2  21B6  81CA  1E4C    5
   68     10723    11264   HEAVY2  3C27  1927  2F52    1
   69     10767    11264   HEAVY2  9FFF  10EF  272F    1
   70     10848    11264   HEAVY2  D287  030A  722E    3
   71     10409    11264   HEAVY2  C462  B622  77C1    5
   72     10623    11264   HEAVY2  2E76  C9F6  CAFA    1
   73     10439    11264   HEAVY2  43E1  32B8  B2DC    1
   74     10464    11264   HEAVY2  A39C  1D4A  71BB    5
   75     10871    11264   HEAVY2  65ED  C9C1  6555    3
   76     10715    11264   HEAVY2  D380  C5C4  88FF    1
   77     10519    11264   HEAVY2  909D  A208  A198    5
   78     10755    11264   HEAVY2  2C3D  DE78  AA93    1
   79     10725    11264   HEAVY2  0057  E26D  1586    1


 File : amber_b.dms
 Created with DMS version 1.11 Evaluation
 Creation date : Fri Mar  1 09:27:55 1996
 Lowest track in archive : 0
 Highest track in archive : 79
 Packed data size : 472052
 Unpacked data size : 901120
 Disk type of archive : AmigaOS 1.0 OFS
 Compression mode used : HEAVY2
 General info : None
 Info Header CRC : 27CC

 Track   Plength  Ulength  Cmode   USUM  HCRC  DCRC Cflag
 ------  -------  -------  ------  ----  ----  ---- -----
    0      6967    11264   HEAVY2  FBD7  E7EC  764A    7
    1      7035    11264   HEAVY2  B252  FE35  5A84    5
    2       945    11264   HEAVY2  FA2F  568E  F0A9    5
    3      2083    11264   HEAVY2  1D8C  5CFA  2B8D    5
    4      1399    11264   HEAVY2  8CC3  4EB8  2327    5
    5      1098    11264   HEAVY2  2C21  D2D7  072E    5
    6      1914    11264   HEAVY2  F54A  0B46  11AD    5
    7      3920    11264   HEAVY2  2D54  B77A  B498    5
    8      3722    11264   HEAVY2  27B3  A0B2  0E68    5
    9     10509    11264   HEAVY2  EB6F  9498  538F    5
   10     10981    11264   HEAVY2  EBFE  AE8F  1E6C    1
   11     11248    11264   HEAVY2  D010  C95E  EF76    3
   12     10222    11264   HEAVY2  C9D1  3A58  8E04    5
   13      8320    11264   HEAVY2  4F24  E8A6  B3A3    5
   14      4570    11264   HEAVY2  AEB7  5B8B  1C10    5
   15      3366    11264   HEAVY2  7519  1A09  562D    5
   16      9737    11264   HEAVY2  2068  BBDD  8AA0    1
   17      8665    11264   HEAVY2  AA13  1DE1  7C61    5
   18      8317    11264   HEAVY2  7BFC  A3CB  ABAF    7
   19      9988    11264   HEAVY2  177E  92C3  37F6    5
   20     10267    11264   HEAVY2  9BB3  231A  B354    5
   21      9019    11264   HEAVY2  C7C4  283D  138F    5
   22         5    11264   HEAVY2  0000  BB4A  B201    5
   23         3    11264   HEAVY2  0000  2206  763C    5
   24         2    11264   HEAVY2  0000  ADFB  C009    5
   25         2    11264   HEAVY2  0000  AD3A  C009    5
   26         2    11264   HEAVY2  0000  AC79  C009    5
   27         2    11264   HEAVY2  0000  ACB8  C009    5
   28         2    11264   HEAVY2  0000  AEFF  C009    5
   29         2    11264   HEAVY2  0000  AE3E  C009    5
   30         2    11264   HEAVY2  0000  AF7D  C009    5
   31         2    11264   HEAVY2  0000  AFBC  C009    5
   32         2    11264   HEAVY2  0000  BFC3  C009    5
   33         2    11264   HEAVY2  0000  BF02  C009    5
   34         2    11264   HEAVY2  0000  BE41  C009    5
   35         2    11264   HEAVY2  0000  BE80  C009    5
   36         2    11264   HEAVY2  0000  BCC7  C009    5
   37         2    11264   HEAVY2  0000  BC06  C009    5
   38         2    11264   HEAVY2  0000  BD45  C009    5
   39         2    11264   HEAVY2  0000  BD84  C009    5
   40      5480    11264   HEAVY2  38D4  007E  7260    5
   41      4178    11264   HEAVY2  063E  1001  A07F    5
   42      9452    11264   HEAVY2  2EE6  4054  25B9    7
   43     10573    11264   HEAVY2  11C5  EC49  DADC    5
   44     10808    11264   HEAVY2  A861  8115  FBED    1
   45     10497    11264   HEAVY2  C344  681D  3AFA    1
   46      8894    11264   HEAVY2  1E4F  EF72  C2CA    5
   47      9587    11264   HEAVY2  B39F  10F7  5C36    7
   48      9176    11264   HEAVY2  0B07  EA9B  B487    5
   49      9542    11264   HEAVY2  F46C  C729  E1CD    5
   50      9033    11264   HEAVY2  000D  95A9  D804    5
   51      8830    11264   HEAVY2  D33D  474D  6626    5
   52      8640    11264   HEAVY2  26DD  C63D  CD31    1
   53      6911    11264   HEAVY2  28F2  66FD  658C    7
   54      8402    11264   HEAVY2  B963  8150  34E2    1
   55      7479    11264   HEAVY2  5685  A263  2773    1
   56      7467    11264   HEAVY2  2D56  83D2  FCBF    5
   57      8879    11264   HEAVY2  4B14  0F1C  55DB    1
   58      8916    11264   HEAVY2  D3CB  7EBE  EB4F    1
   59      9204    11264   HEAVY2  1998  6F52  5852    3
   60      9041    11264   HEAVY2  0FA2  204B  3AB2    5
   61      8624    11264   HEAVY2  332D  5108  0AE5    1
   62      8304    11264   HEAVY2  68D9  1D94  1A3F    1
   63      7811    11264   HEAVY2  AD46  D5DC  CDB4    5
   64      7692    11264   HEAVY2  9FE3  1488  0B36    1
   65      8024    11264   HEAVY2  5F98  0863  1D84    3
   66      8547    11264   HEAVY2  7747  9D63  22C0    5
   67      9087    11264   HEAVY2  3093  8159  AD5B    1
   68      8907    11264   HEAVY2  86F2  CEBD  C8FC    1
   69      8747    11264   HEAVY2  9D85  12A7  6E10    5
   70      9378    11264   HEAVY2  B49E  7826  DF48    1
   71      9147    11264   HEAVY2  780B  37C3  D3BE    3
   72      9222    11264   HEAVY2  2E64  9E4D  8ED5    1
   73      8726    11264   HEAVY2  89EA  78F8  7039    5
   74      8578    11264   HEAVY2  DD6F  168D  CDD7    1
   75      7631    11264   HEAVY2  03A4  6E22  EA53    1
   76      5126    11264   HEAVY2  E8FE  2739  57AE    5
   77      4964    11264   HEAVY2  169C  EBA3  E7C1    7
   78      4147    11264   HEAVY2  093A  517E  A9D7    5
   79      4069    11264   HEAVY2  E38D  CD79  1891    5


 File : amber_c.dms
 Created with DMS version 1.11 Evaluation
 Creation date : Fri Mar  1 09:26:32 1996
 Lowest track in archive : 0
 Highest track in archive : 79
 Packed data size : 723319
 Unpacked data size : 901120
 Disk type of archive : AmigaOS 1.0 OFS
 Compression mode used : HEAVY2
 General info : None
 Info Header CRC : C34C

 Track   Plength  Ulength  Cmode   USUM  HCRC  DCRC Cflag
 ------  -------  -------  ------  ----  ----  ---- -----
    0     10162    11264   HEAVY2  28D3  981A  0ABA    7
    1     10619    11264   HEAVY2  44F7  6170  FFED    1
    2     10946    11264   HEAVY2  4009  C704  653E    1
    3     10708    11264   HEAVY2  7B78  18CE  BAFE    5
    4     10945    11264   HEAVY2  65F3  923B  B7D7    1
    5     11068    11264   HEAVY2  58EA  97D4  03A8    3
    6     10902    11264   HEAVY2  4FEF  55F8  8C05    1
    7     10711    11264   HEAVY2  5E83  C511  68B4    5
    8     10918    11264   HEAVY2  0F2E  DEDD  4E3E    1
    9     10929    11264   HEAVY2  2D10  AE4B  0801    1
   10     10884    11264   HEAVY2  25BA  E5B2  CAA2    7
   11     10318    11264   HEAVY2  838C  56C8  2674    5
   12     10956    11264   HEAVY2  57F1  226A  5B51    1
   13     10953    11264   HEAVY2  360B  E00B  B1D4    1
   14     10704    11264   HEAVY2  6E9A  794A  4F68    5
   15     11130    11264   HEAVY2  61DE  D3C0  22B6    3
   16     10950    11264   HEAVY2  51D9  C193  A969    1
   17     10951    11264   HEAVY2  49F9  1C8D  86CC    1
   18     10732    11264   HEAVY2  A95B  A63F  CB3E    5
   19     10954    11264   HEAVY2  3EEC  C8AA  4991    1
   20     11127    11264   HEAVY2  5AE3  6771  332D    3
   21     10748    11264   HEAVY2  B33E  160D  B00C    5
   22     10963    11264   HEAVY2  5EE4  0CA9  33CD    1
   23     10959    11264   HEAVY2  61E2  FE08  46B8    1
   24     10658    11264   HEAVY2  4CB2  C87A  4A1B    5
   25     11290    11264   HEAVY2  4ADC  C9E0  12EE    3
   26      8602    11264   HEAVY2  5EE3  B42A  4D40    5
   27         4    11264   HEAVY2  0000  0EAD  25AE    5
   28         3    11264   HEAVY2  0000  A44B  7D80    5
   29         2    11264   HEAVY2  0000  A887  6340    5
   30         2    11264   HEAVY2  0000  A9C4  6340    5
   31         2    11264   HEAVY2  0000  A905  6340    5
   32         2    11264   HEAVY2  0000  B97A  6340    5
   33         2    11264   HEAVY2  0000  B9BB  6340    5
   34         2    11264   HEAVY2  0000  B8F8  6340    5
   35         2    11264   HEAVY2  0000  B839  6340    5
   36         2    11264   HEAVY2  0000  BA7E  6340    5
   37         2    11264   HEAVY2  0000  BABF  6340    5
   38         2    11264   HEAVY2  0000  BBFC  6340    5
   39         2    11264   HEAVY2  0000  BB3D  6340    5
   40      7768    11264   HEAVY2  61F2  2D9F  CE5B    5
   41     10928    11264   HEAVY2  57F6  564D  2C44    1
   42     10925    11264   HEAVY2  0C1F  7839  F601    1
   43     10688    11264   HEAVY2  7875  B1F1  193F    5
   44     10783    11264   HEAVY2  4104  A15D  D520    3
   45     10902    11264   HEAVY2  54E7  560F  A99D    1
   46     10930    11264   HEAVY2  2608  BBF8  2A1E    1
   47     10715    11264   HEAVY2  5291  DAAE  FB7A    5
   48     10910    11264   HEAVY2  F13A  D2B6  F878    1
   49     11119    11264   HEAVY2  56E5  4ECF  3868    3
   50     10680    11264   HEAVY2  8086  BC2A  A573    5
   51     10945    11264   HEAVY2  63CF  C619  795E    1
   52     10935    11264   HEAVY2  4EE5  9E7D  D02B    1
   53     10655    11264   HEAVY2  45A8  983F  0C7A    5
   54     11112    11264   HEAVY2  3CEC  4E47  1BB8    3
   55     10930    11264   HEAVY2  2313  3C65  9AE9    1
   56     10922    11264   HEAVY2  0D19  4F39  977A    1
   57     10705    11264   HEAVY2  35B9  B295  D33C    5
   58     10940    11264   HEAVY2  0416  40AB  F759    1
   59     11113    11264   HEAVY2  2D19  768B  266C    3
   60     10672    11264   HEAVY2  46C2  C428  5D4E    5
   61     10944    11264   HEAVY2  2105  9B3F  5BA4    1
   62     10942    11264   HEAVY2  46F2  676C  DB63    1
   63     10691    11264   HEAVY2  9368  9436  DF90    5
   64     11103    11264   HEAVY2  3DFD  9870  A994    3
   65     10924    11264   HEAVY2  54E1  BE3D  D6F2    1
   66     10932    11264   HEAVY2  2900  FD7E  9CD2    1
   67     10691    11264   HEAVY2  9756  F91D  C26F    5
   68     10920    11264   HEAVY2  191B  2D99  D1E1    1
   69     11114    11264   HEAVY2  4FE8  2857  A310    3
   70     10685    11264   HEAVY2  52B3  96A0  C946    5
   71     10928    11264   HEAVY2  1613  2FD8  7893    1
   72     10940    11264   HEAVY2  42EC  F481  9878    1
   73     10705    11264   HEAVY2  41AE  0DF6  EBA8    5
   74     11096    11264   HEAVY2  4DDA  A7CF  58A1    3
   75     10932    11264   HEAVY2  37F3  7647  969A    1
   76     10945    11264   HEAVY2  1B11  D57B  09C2    1
   77     10709    11264   HEAVY2  5199  1D80  1EC4    5
   78     10915    11264   HEAVY2  2AFF  10F8  D3F3    1
   79     11110    11264   HEAVY2  7AE2  59D1  8F70    3


 File : amber_d.dms
 Created with DMS version 1.11 Evaluation
 Creation date : Fri Mar  1 09:29:09 1996
 Lowest track in archive : 0
 Highest track in archive : 79
 Packed data size : 851976
 Unpacked data size : 901120
 Disk type of archive : AmigaOS 1.0 OFS
 Compression mode used : HEAVY2
 General info : None
 Info Header CRC : 0B00

 Track   Plength  Ulength  Cmode   USUM  HCRC  DCRC Cflag
 ------  -------  -------  ------  ----  ----  ---- -----
    0     10189    11264   HEAVY2  4DC8  ADF6  2BDF    7
    1     10958    11264   HEAVY2  160F  39A2  FFC9    1
    2     10953    11264   HEAVY2  2F26  7C4E  9E86    1
    3     10714    11264   HEAVY2  38BB  C347  10DA    5
    4     10965    11264   HEAVY2  1E07  C17C  9F64    1
    5     11125    11264   HEAVY2  140A  6A06  A8E1    3
    6     10713    11264   HEAVY2  53A8  FB3E  C58D    5
    7     10954    11264   HEAVY2  4FD8  904F  D11C    1
    8     10946    11264   HEAVY2  3CF3  0E77  65AB    1
    9     10950    11264   HEAVY2  45E1  BC77  F44F    1
   10     10970    11264   HEAVY2  6B92  ED91  27A3    7
   11     10965    11264   HEAVY2  49F2  82F3  61E6    1
   12     10958    11264   HEAVY2  37FB  C2F1  CCC8    1
   13     10599    11264   HEAVY2  54AF  3068  F04B    5
   14      9653    11264   HEAVY2  DA7E  DFBC  865F    5
   15     11098    11264   HEAVY2  EA56  DBB2  9B7E    3
   16     10925    11264   HEAVY2  200A  B962  5477    1
   17     10700    11264   HEAVY2  5EA4  2483  CF75    5
   18     10952    11264   HEAVY2  2617  D20E  69D5    1
   19     10951    11264   HEAVY2  4FF1  8404  9C76    1
   20     10886    11264   HEAVY2  7C7F  B9EE  E0CC    7
   21     10957    11264   HEAVY2  6AE4  6ED4  F2A9    1
   22     10947    11264   HEAVY2  2C00  181D  6AD7    1
   23     10946    11264   HEAVY2  360C  19DE  95E1    1
   24     10700    11264   HEAVY2  866F  9197  EA58    5
   25     11125    11264   HEAVY2  4BEF  B96D  197D    3
   26     10942    11264   HEAVY2  27FE  8208  F1E1    1
   27     10599    11264   HEAVY2  CF0C  8C93  0D79    5
   28     10924    11264   HEAVY2  2417  3509  EC8D    1
   29     10891    11264   HEAVY2  F92F  CC2F  7CE3    1
   30     10883    11264   HEAVY2  9488  33B7  F837    7
   31     10897    11264   HEAVY2  30FC  1017  7C63    1
   32     10903    11264   HEAVY2  F938  1A9F  B5E6    1
   33     10882    11264   HEAVY2  1327  85FD  CE4B    1
   34     10721    11264   HEAVY2  52A5  B3BF  771C    5
   35     11245    11264   HEAVY2  32F1  E58D  5688    3
   36     10950    11264   HEAVY2  4AEA  94A5  E434    1
   37     10586    11264   HEAVY2  22D6  31A1  0132    5
   38      8711    11264   HEAVY2  2A1E  96AC  6E5D    5
   39         5    11264   HEAVY2  0000  4AC4  E4F2    5
   40      8085    11264   HEAVY2  BAB6  439E  604A    5
   41     10948    11264   HEAVY2  47E6  8F71  DB69    1
   42     11116    11264   HEAVY2  1920  EE55  26E1    3
   43     10697    11264   HEAVY2  7272  8D27  74DD    5
   44     10899    11264   HEAVY2  DF37  83B5  A992    1
   45     10926    11264   HEAVY2  0A18  285D  2594    1
   46     10670    11264   HEAVY2  32CC  224E  8C8F    5
   47     11229    11264   HEAVY2  0E24  EA9D  FC8E    3
   48     10915    11264   HEAVY2  3100  3970  2FDF    1
   49     10936    11264   HEAVY2  23F9  6DFE  4902    1
   50     10615    11264   HEAVY2  55A1  E1ED  D019    5
   51     10173    11264   HEAVY2  4AC2  B68B  F75A    5
   52     11101    11264   HEAVY2  31FA  A6EF  6E94    3
   53     10904    11264   HEAVY2  FF25  006A  B64C    1
   54      8950    11264   HEAVY2  9359  CD52  22EE    5
   55     10925    11264   HEAVY2  3C0C  BF2D  421A    1
   56     10918    11264   HEAVY2  291D  C8B7  32CC    1
   57     10818    11264   HEAVY2  37BB  4F9B  7ACC    7
   58     10938    11264   HEAVY2  FA41  8DBE  1234    1
   59     10903    11264   HEAVY2  111A  73B4  3AB8    1
   60     10746    11264   HEAVY2  12E4  0F80  F363    5
   61     10963    11264   HEAVY2  3C03  E7DA  8768    1
   62     11127    11264   HEAVY2  1C1C  276F  F1D8    3
   63     10722    11264   HEAVY2  6397  95B1  9902    5
   64     10958    11264   HEAVY2  F737  A42D  5C58    1
   65     10957    11264   HEAVY2  3313  A8AC  E4E3    1
   66     10710    11264   HEAVY2  C04A  7471  522B    5
   67     11130    11264   HEAVY2  62DC  C145  BFF2    3
   68     10948    11264   HEAVY2  49E5  8C91  7360    1
   69     10945    11264   HEAVY2  6AC9  7D45  9BDE    1
   70     10731    11264   HEAVY2  62A0  8F2B  C94A    5
   71     10961    11264   HEAVY2  53E2  B1AC  62C2    1
   72     11127    11264   HEAVY2  50E5  A81B  FF47    3
   73     10708    11264   HEAVY2  6893  BC93  7A84    5
   74     10958    11264   HEAVY2  4305  97C6  D6C2    1
   75     10956    11264   HEAVY2  2D11  FFA2  9013    1
   76     10701    11264   HEAVY2  848F  1144  458A    5
   77     11129    11264   HEAVY2  4FEF  0660  6E42    3
   78     10950    11264   HEAVY2  4FFD  7824  3EAE    1
   79     10945    11264   HEAVY2  53DE  DB63  A4C2    1


 File : amber_e.dms
 Created with DMS version 1.11 Evaluation
 Creation date : Fri Mar  1 09:30:14 1996
 Lowest track in archive : 0
 Highest track in archive : 79
 Packed data size : 718257
 Unpacked data size : 901120
 Disk type of archive : AmigaOS 1.0 OFS
 Compression mode used : HEAVY2
 General info : None
 Info Header CRC : 73D7

 Track   Plength  Ulength  Cmode   USUM  HCRC  DCRC Cflag
 ------  -------  -------  ------  ----  ----  ---- -----
    0     10475    11264   HEAVY2  1223  CC1D  86E3    7
    1     10961    11264   HEAVY2  2A09  56B2  DCEF    1
    2     10952    11264   HEAVY2  1829  1325  5EF6    1
    3     10700    11264   HEAVY2  7080  E8F0  8FCC    5
    4     10959    11264   HEAVY2  17FD  3AEB  9D0D    1
    5     11122    11264   HEAVY2  38F4  F0F4  5748    3
    6     10718    11264   HEAVY2  50A0  E893  AD71    5
    7     10955    11264   HEAVY2  38FD  980A  3778    1
    8     10932    11264   HEAVY2  39F9  110F  F7F5    1
    9     10692    11264   HEAVY2  4BBC  CB5F  ABDD    5
   10     11115    11264   HEAVY2  5AEC  CC81  7F6D    3
   11     10937    11264   HEAVY2  340B  E6A4  4979    1
   12     10932    11264   HEAVY2  1721  79AA  9755    1
   13     10700    11264   HEAVY2  46A8  407E  20A2    5
   14     10937    11264   HEAVY2  0D1A  6C42  1C86    1
   15     11245    11264   HEAVY2  4104  0B02  34FA    3
   16     10593    11264   HEAVY2  5C9E  711F  5B1D    5
   17     10384    11264   HEAVY2  03DB  2A16  6D94    5
   18     10913    11264   HEAVY2  ED35  6264  19D1    1
   19     10940    11264   HEAVY2  220D  F5C1  AAE8    1
   20     11088    11264   HEAVY2  FB25  D99D  1877    3
   21     10721    11264   HEAVY2  777B  E53B  ED6A    5
   22     10929    11264   HEAVY2  0F11  9639  BCE1    1
   23     10912    11264   HEAVY2  1110  D620  6B6F    1
   24     10632    11264   HEAVY2  4AB1  980D  4BDA    5
   25     11278    11264   HEAVY2  241E  40FD  913C    3
   26       575    11264   HEAVY2  DA92  5838  2F23    5
   27         6    11264   HEAVY2  0000  BA6D  3EFF    5
   28         4    11264   HEAVY2  0000  D456  884F    5
   29         2    11264   HEAVY2  0000  6813  AF41    5
   30         2    11264   HEAVY2  0000  6950  AF41    5
   31         2    11264   HEAVY2  0000  6991  AF41    5
   32         2    11264   HEAVY2  0000  79EE  AF41    5
   33         2    11264   HEAVY2  0000  792F  AF41    5
   34         2    11264   HEAVY2  0000  786C  AF41    5
   35         2    11264   HEAVY2  0000  78AD  AF41    5
   36         2    11264   HEAVY2  0000  7AEA  AF41    5
   37         2    11264   HEAVY2  0000  7A2B  AF41    5
   38         2    11264   HEAVY2  0000  7B68  AF41    5
   39         2    11264   HEAVY2  0000  7BA9  AF41    5
   40      9552    11264   HEAVY2  BA8C  B074  5ABC    5
   41     10942    11264   HEAVY2  EC43  2C1A  E7C4    1
   42     10949    11264   HEAVY2  38F6  16A8  D21B    1
   43     10697    11264   HEAVY2  8882  45D7  7725    5
   44     11115    11264   HEAVY2  281C  31E8  4CBC    3
   45     10944    11264   HEAVY2  1821  01C6  28E6    1
   46     10714    11264   HEAVY2  6994  903E  7E3F    5
   47     10942    11264   HEAVY2  63EA  9D2D  02F0    1
   48     10932    11264   HEAVY2  3BFD  83E0  3E68    1
   49     11124    11264   HEAVY2  54DE  E8A4  5EA3    3
   50     10718    11264   HEAVY2  519C  5AA1  F2FD    5
   51     10949    11264   HEAVY2  4AD7  AA11  4A14    1
   52     10942    11264   HEAVY2  1F0D  758C  C7C0    1
   53     10689    11264   HEAVY2  9274  0821  C830    5
   54     11108    11264   HEAVY2  85B2  BECB  5091    3
   55     10935    11264   HEAVY2  46E7  E7A0  800B    1
   56     10713    11264   HEAVY2  7590  9D42  8C89    5
   57     10947    11264   HEAVY2  54D3  8376  05BE    1
   58     10941    11264   HEAVY2  1512  E0C3  6BDA    1
   59     11114    11264   HEAVY2  3A02  46A7  13A7    3
   60     10718    11264   HEAVY2  5BAB  5C4C  640D    5
   61     10947    11264   HEAVY2  4FF4  0EA6  7CFD    1
   62     10946    11264   HEAVY2  73CA  6AA5  1FB1    1
   63     10724    11264   HEAVY2  7E8A  239C  148D    5
   64     11120    11264   HEAVY2  2BFF  02A6  CB1D    3
   65     10952    11264   HEAVY2  4DE2  AC27  2119    1
   66     10700    11264   HEAVY2  9C76  A629  36A2    5
   67     10940    11264   HEAVY2  EF43  DE6A  24F9    1
   68     10947    11264   HEAVY2  2322  CD78  581F    1
   69     10876    11264   HEAVY2  7388  6EE7  74BB    7
   70     10952    11264   HEAVY2  3DE3  06CA  A047    1
   71     10952    11264   HEAVY2  0F17  854D  BEDB    1
   72     10954    11264   HEAVY2  5ED7  9453  A648    1
   73     10716    11264   HEAVY2  7F81  C486  4E99    5
   74     11125    11264   HEAVY2  37ED  2FAE  7A66    3
   75     10948    11264   HEAVY2  6FC8  0BDF  56A6    1
   76     10702    11264   HEAVY2  6982  F5C1  A59E    5
   77     10948    11264   HEAVY2  5602  93AF  8F38    1
   78     10935    11264   HEAVY2  2C0F  F349  6EAD    1
   79     10859    11264   HEAVY2  727C  F315  C107    7


 File : amber_f.dms
 Created with DMS version 1.11 Evaluation
 Creation date : Fri Mar  1 09:32:02 1996
 Lowest track in archive : 0
 Highest track in archive : 79
 Packed data size : 825509
 Unpacked data size : 901120
 Disk type of archive : AmigaOS 1.0 OFS
 Compression mode used : HEAVY2
 General info : None
 Info Header CRC : 1A66

 Track   Plength  Ulength  Cmode   USUM  HCRC  DCRC Cflag
 ------  -------  -------  ------  ----  ----  ---- -----
    0      9172    11264   HEAVY2  80B0  5682  BE3A    7
    1     10960    11264   HEAVY2  EA3D  B0BD  691F    1
    2     10915    11264   HEAVY2  F042  0B45  0A0B    1
    3     10654    11264   HEAVY2  32B6  9DE9  BC6A    5
    4     10938    11264   HEAVY2  1C09  460C  4B06    1
    5     11088    11264   HEAVY2  180D  C637  0A22    3
    6     10904    11264   HEAVY2  CF53  C65B  2651    1
    7     10673    11264   HEAVY2  26B7  3973  6D92    5
    8     10902    11264   HEAVY2  2A03  46FB  4B2D    1
    9     10937    11264   HEAVY2  2816  3372  4C40    1
   10     10883    11264   HEAVY2  41A4  13C9  8591    7
   11     10958    11264   HEAVY2  FB28  84BB  CA25    1
   12     10945    11264   HEAVY2  2B17  0F9A  E2E6    1
   13     10597    11264   HEAVY2  F2FA  017F  EBB2    5
   14     10943    11264   HEAVY2  EC2E  5901  85AD    1
   15     10893    11264   HEAVY2  8A78  80BA  AC57    7
   16     10441    11264   HEAVY2  EFE7  EC60  7D94    5
   17     10948    11264   HEAVY2  0524  0320  0B4F    1
   18     10943    11264   HEAVY2  4B0C  0C03  5694    1
   19     10706    11264   HEAVY2  8579  13D8  0974    5
   20     11122    11264   HEAVY2  2614  811A  0A0C    3
   21     10950    11264   HEAVY2  0B1A  8418  C5EF    1
   22     10723    11264   HEAVY2  A953  16B7  44F3    5
   23     10942    11264   HEAVY2  2B07  75AD  5664    1
   24     10941    11264   HEAVY2  4BF6  2113  E891    1
   25     10844    11264   HEAVY2  44B3  1877  25F5    7
   26     10950    11264   HEAVY2  3303  5531  6216    1
   27     10949    11264   HEAVY2  41EC  2D5B  882B    1
   28     10539    11264   HEAVY2  9B21  63BE  F24A    5
   29     10955    11264   HEAVY2  2B07  07BF  2D84    1
   30     11080    11264   HEAVY2  CA45  DFB8  CC8D    3
   31     10705    11264   HEAVY2  6392  ADBF  73CD    5
   32     10934    11264   HEAVY2  1D00  1301  BC38    1
   33     10922    11264   HEAVY2  2C00  73EE  59E8    1
   34     10631    11264   HEAVY2  4DA8  087B  432A    5
   35     11273    11264   HEAVY2  1E1D  1262  97D1    3
   36      4075    11264   HEAVY2  A080  D7D8  D482    5
   37         5    11264   HEAVY2  0000  FE8E  0700    5
   38         4    11264   HEAVY2  0000  D69B  3C73    5
   39         2    11264   HEAVY2  0000  BBA6  B9C1    5
   40      9735    11264   HEAVY2  581A  0629  B479    5
   41     10928    11264   HEAVY2  1E0A  A83F  5FC2    1
   42      9326    11264   HEAVY2  B48B  507A  6CCC    5
   43     10884    11264   HEAVY2  1D0D  E00E  3CD3    1
   44     11226    11264   HEAVY2  1124  4710  C61F    3
   45     10604    11264   HEAVY2  4BA1  F767  AAE0    5
   46     10917    11264   HEAVY2  F71D  9D16  CB47    1
   47      9106    11264   HEAVY2  7ABA  C83E  7C7F    5
   48     10952    11264   HEAVY2  6DD9  1E9C  6282    1
   49     11116    11264   HEAVY2  25F8  14D4  ED79    3
   50     10711    11264   HEAVY2  6491  E9A1  8043    5
   51     10943    11264   HEAVY2  1007  2EEC  3ABB    1
   52     10940    11264   HEAVY2  2C0D  3152  E361    1
   53     10707    11264   HEAVY2  6F79  3EDC  FF0F    5
   54     11124    11264   HEAVY2  2FF2  614C  EBEB    3
   55     10940    11264   HEAVY2  1A11  A05A  1348    1
   56     10940    11264   HEAVY2  240D  0986  3BB3    1
   57     10736    11264   HEAVY2  7A8D  95F2  F9BE    5
   58     10935    11264   HEAVY2  3404  1959  57F9    1
   59     11127    11264   HEAVY2  101D  8039  0D96    3
   60     10701    11264   HEAVY2  15CE  66D9  2EEF    5
   61     10952    11264   HEAVY2  2B19  192E  04B5    1
   62     10933    11264   HEAVY2  F927  733F  DC0C    1
   63     10584    11264   HEAVY2  34C2  673F  E22B    5
   64     11258    11264   HEAVY2  FF43  4779  5FF8    3
   65     10376    11264   HEAVY2  5B94  7ADF  3431    5
   66     10958    11264   HEAVY2  85D5  053D  3C30    1
   67     10956    11264   HEAVY2  50E6  4DD9  4875    1
   68     10716    11264   HEAVY2  677C  F67C  DE93    5
   69     11129    11264   HEAVY2  3203  98A0  AD01    3
   70     10947    11264   HEAVY2  1926  5C72  A93D    1
   71     10951    11264   HEAVY2  101A  5A3C  76F5    1
   72     10735    11264   HEAVY2  6F93  7101  8996    5
   73     10949    11264   HEAVY2  3CEF  6959  2818    1
   74     11120    11264   HEAVY2  42FE  F468  28CE    3
   75     10739    11264   HEAVY2  876E  AF4A  6C7D    5
   76     10959    11264   HEAVY2  45F0  2C8F  F017    1
   77     10953    11264   HEAVY2  0E21  3247  30F3    1
   78     10627    11264   HEAVY2  38B2  7DAB  0CAC    5
   79     11123    11264   HEAVY2  5AE4  F537  90B3    3


 File : amber_g.dms
 Created with DMS version 1.11 Evaluation
 Creation date : Fri Mar  1 09:33:11 1996
 Lowest track in archive : 0
 Highest track in archive : 79
 Packed data size : 666714
 Unpacked data size : 901120
 Disk type of archive : AmigaOS 1.0 OFS
 Compression mode used : HEAVY2
 General info : None
 Info Header CRC : F543

 Track   Plength  Ulength  Cmode   USUM  HCRC  DCRC Cflag
 ------  -------  -------  ------  ----  ----  ---- -----
    0     10186    11264   HEAVY2  14E4  F3E6  F6B5    7
    1     10960    11264   HEAVY2  6FC2  2622  9D86    1
    2     10958    11264   HEAVY2  45F4  964F  E96C    1
    3     10634    11264   HEAVY2  42B3  9436  DE33    5
    4     10963    11264   HEAVY2  2CF7  F92A  973F    1
    5     10857    11264   HEAVY2  7692  F7C0  3823    7
    6     10969    11264   HEAVY2  360D  9585  F16F    1
    7     10958    11264   HEAVY2  41E7  C106  BAAF    1
    8     10717    11264   HEAVY2  B74C  123D  172B    5
    9     10969    11264   HEAVY2  1910  8CEA  523A    1
   10     11124    11264   HEAVY2  47E4  04B4  4A14    3
   11     10718    11264   HEAVY2  B15D  39F0  A191    5
   12     10966    11264   HEAVY2  55E5  41E3  0A9B    1
   13     10944    11264   HEAVY2  43F1  E801  9BC8    1
   14     10946    11264   HEAVY2  70D1  FA80  6E7A    1
   15     10933    11264   HEAVY2  6495  14B4  A7FF    7
   16     10962    11264   HEAVY2  0D2E  9F4B  F179    1
   17     10623    11264   HEAVY2  936A  7807  6F99    5
   18     10963    11264   HEAVY2  35FE  8F1D  DF48    1
   19     10960    11264   HEAVY2  2DF7  4EFA  8B3D    1
   20     10949    11264   HEAVY2  6B97  2E68  B0CD    7
   21     10963    11264   HEAVY2  2A13  3BAE  A503    1
   22      1380    11264   HEAVY2  E2C6  25D5  DD4D    5
   23         5    11264   HEAVY2  0000  C27C  0763    5
   24         4    11264   HEAVY2  0000  D752  884F    5
   25         2    11264   HEAVY2  0000  6B17  AF41    5
   26         2    11264   HEAVY2  0000  6A54  AF41    5
   27         2    11264   HEAVY2  0000  6A95  AF41    5
   28         2    11264   HEAVY2  0000  68D2  AF41    5
   29         2    11264   HEAVY2  0000  6813  AF41    5
   30         2    11264   HEAVY2  0000  6950  AF41    5
   31         2    11264   HEAVY2  0000  6991  AF41    5
   32         2    11264   HEAVY2  0000  79EE  AF41    5
   33         2    11264   HEAVY2  0000  792F  AF41    5
   34         2    11264   HEAVY2  0000  786C  AF41    5
   35         2    11264   HEAVY2  0000  78AD  AF41    5
   36         2    11264   HEAVY2  0000  7AEA  AF41    5
   37         2    11264   HEAVY2  0000  7A2B  AF41    5
   38         2    11264   HEAVY2  0000  7B68  AF41    5
   39         2    11264   HEAVY2  0000  7BA9  AF41    5
   40      9287    11264   HEAVY2  8BD0  BE4B  67AD    5
   41     10006    11264   HEAVY2  29C8  C359  7634    5
   42     10344    11264   HEAVY2  813B  B8C5  1D85    5
   43     10488    11264   HEAVY2  F9C5  A0C9  8B18    7
   44     10947    11264   HEAVY2  3E02  BFDE  4706    1
   45     10920    11264   HEAVY2  40FD  0267  5FF8    1
   46     10679    11264   HEAVY2  39A6  3EFD  9CEC    5
   47     10945    11264   HEAVY2  0A2F  3F64  D706    1
   48     11286    11264   HEAVY2  5DD1  B370  D494    3
   49     10316    11264   HEAVY2  D90E  50A4  AEEA    5
   50      9466    11264   HEAVY2  EE30  152C  F33C    5
   51     10085    11264   HEAVY2  0C9F  16A4  7C42    5
   52     10959    11264   HEAVY2  3DED  0046  5148    1
   53     10637    11264   HEAVY2  589C  6A87  EF66    7
   54     10945    11264   HEAVY2  44FC  3C8D  E327    1
   55     10324    11264   HEAVY2  8986  C067  2B06    5
   56     10948    11264   HEAVY2  1D09  9222  5878    1
   57     10954    11264   HEAVY2  40EE  658D  07C9    1
   58     10289    11264   HEAVY2  5F69  77FD  B46B    7
   59     10964    11264   HEAVY2  3013  FE55  B870    1
   60     10595    11264   HEAVY2  20C9  AF88  4C02    5
   61      9752    11264   HEAVY2  1373  02C2  16CF    5
   62     10969    11264   HEAVY2  300E  ACC0  1F6A    1
   63     10814    11264   HEAVY2  7682  BBCE  3509    7
   64     10960    11264   HEAVY2  67F7  B7E0  5C52    1
   65     10954    11264   HEAVY2  43F7  49B5  C6E4    1
   66     10957    11264   HEAVY2  4DF8  297A  B5F2    1
   67     10696    11264   HEAVY2  6089  24AB  22D8    5
   68     11286    11264   HEAVY2  2507  D7CB  9CB0    3
   69     10039    11264   HEAVY2  B3F3  B568  FA02    5
   70     10956    11264   HEAVY2  35F6  BFBD  1DEB    1
   71     10949    11264   HEAVY2  4EF0  39DB  A33F    1
   72     10948    11264   HEAVY2  3D04  6E98  9ADC    1
   73     11017    11264   HEAVY2  6695  98F5  B970    7
   74     10973    11264   HEAVY2  3705  9B98  FE62    1
   75     10966    11264   HEAVY2  2C14  E7E9  0700    1
   76      9401    11264   HEAVY2  7C0B  A7F4  7C36    5
   77     10968    11264   HEAVY2  6BC1  DE34  9C94    1
   78     11128    11264   HEAVY2  4CF3  1BE0  9845    3
   79     10956    11264   HEAVY2  5AEC  B800  FF53    1


 File : amber_h.dms
 Created with DMS version 1.11 Evaluation
 Creation date : Fri Mar  1 09:34:13 1996
 Lowest track in archive : 0
 Highest track in archive : 79
 Packed data size : 821407
 Unpacked data size : 901120
 Disk type of archive : AmigaOS 1.0 OFS
 Compression mode used : HEAVY2
 General info : None
 Info Header CRC : B41C

 Track   Plength  Ulength  Cmode   USUM  HCRC  DCRC Cflag
 ------  -------  -------  ------  ----  ----  ---- -----
    0     10487    11264   HEAVY2  0C26  FE37  2906    7
    1     10720    11264   HEAVY2  42AF  4819  43B3    5
    2     10962    11264   HEAVY2  50F1  B9A3  2F55    1
    3     10948    11264   HEAVY2  4A00  57F1  C4F8    1
    4     10701    11264   HEAVY2  7C85  BC1C  8816    5
    5     11124    11264   HEAVY2  3AF0  0CF3  741B    3
    6     10952    11264   HEAVY2  2DF0  6EF3  B155    1
    7     10708    11264   HEAVY2  A745  4FCD  3920    5
    8     10959    11264   HEAVY2  50E8  AA64  963F    1
    9     10952    11264   HEAVY2  50E0  DBE6  4A35    1
   10     10881    11264   HEAVY2  8381  019E  A132    7
   11     10968    11264   HEAVY2  4FFE  506A  E5AA    1
   12     10956    11264   HEAVY2  44DC  335A  D780    1
   13     10948    11264   HEAVY2  221F  C8BE  556A    1
   14     10719    11264   HEAVY2  3EBB  36F7  6CEA    5
   15     11129    11264   HEAVY2  47F1  8306  653B    3
   16     10956    11264   HEAVY2  48EB  AA5E  B0D6    1
   17     10714    11264   HEAVY2  6783  A3E2  BFAB    5
   18     10956    11264   HEAVY2  85CC  22AB  ECBF    1
   19     10945    11264   HEAVY2  3C15  86F8  3DEB    1
   20     10881    11264   HEAVY2  C64A  0B0B  04F2    7
   21     10955    11264   HEAVY2  5CD1  DCB8  9C86    1
   22     10955    11264   HEAVY2  8FBE  FBE7  502D    1
   23     10959    11264   HEAVY2  3AF6  06EF  F5D9    1
   24     10694    11264   HEAVY2  21D1  2527  0DCA    5
   25     11125    11264   HEAVY2  42F3  BED1  4EEE    3
   26     10953    11264   HEAVY2  2E04  1A8F  3CDE    1
   27     10717    11264   HEAVY2  619F  9840  C8A2    5
   28     10948    11264   HEAVY2  66F7  9ACC  1C72    1
   29     10954    11264   HEAVY2  76B5  8A60  B1DC    1
   30     10878    11264   HEAVY2  AC4A  D451  EB84    7
   31     10948    11264   HEAVY2  52DD  FF6D  0CA3    1
   32     10951    11264   HEAVY2  42E8  AB9C  3CB5    1
   33     10947    11264   HEAVY2  6CC4  80FB  9A6D    1
   34     10618    11264   HEAVY2  718F  53DB  24FB    5
   35      7421    11264   HEAVY2  7A15  4925  9848    7
   36         5    11264   HEAVY2  0000  1CDE  C779    5
   37         4    11264   HEAVY2  0000  C6C6  144F    5
   38         2    11264   HEAVY2  0000  BB67  B9C1    5
   39         2    11264   HEAVY2  0000  BBA6  B9C1    5
   40      9330    11264   HEAVY2  A6A9  0ED9  4263    5
   41     10299    11264   HEAVY2  00C4  3FBA  009F    5
   42     10966    11264   HEAVY2  39FD  C0FC  780B    1
   43     10959    11264   HEAVY2  45CE  E6FC  42F8    1
   44     10960    11264   HEAVY2  0C18  9B7F  886C    1
   45     10894    11264   HEAVY2  48A5  113A  3A30    7
   46     10959    11264   HEAVY2  51FB  EDF8  71F1    1
   47     10953    11264   HEAVY2  66D9  2982  95B6    1
   48     10716    11264   HEAVY2  5C99  620E  F893    5
   49     10962    11264   HEAVY2  3B04  908C  11B2    1
   50     11132    11264   HEAVY2  54EC  0E2A  A903    3
   51     10721    11264   HEAVY2  7491  9D16  99D3    5
   52     10953    11264   HEAVY2  5CEE  F048  0739    1
   53     10947    11264   HEAVY2  6AE2  DB18  AD19    1
   54     10951    11264   HEAVY2  34F5  1985  CD32    1
   55     10898    11264   HEAVY2  8D6E  519B  AF93    7
   56     10946    11264   HEAVY2  52DE  7598  A203    1
   57     10946    11264   HEAVY2  1918  F956  FC4E    1
   58     10715    11264   HEAVY2  748E  5313  A464    5
   59     10954    11264   HEAVY2  3101  FB8A  92C0    1
   60     11118    11264   HEAVY2  4007  D6A9  DC43    3
   61     10711    11264   HEAVY2  56AE  D1B4  6A62    5
   62     10951    11264   HEAVY2  34E6  9C91  5E84    1
   63     10949    11264   HEAVY2  1216  8655  AEA7    1
   64     10946    11264   HEAVY2  0C2D  82DD  7495    1
   65     11001    11264   HEAVY2  9575  9009  F118    7
   66     10960    11264   HEAVY2  4AE8  13ED  E987    1
   67      8822    11264   HEAVY2  0306  8023  4896    5
   68     10969    11264   HEAVY2  46ED  CD00  207B    1
   69     10963    11264   HEAVY2  2DFA  836D  A0CC    1
   70     10913    11264   HEAVY2  5E9F  3566  2729    7
   71     10954    11264   HEAVY2  40F9  B689  1D02    1
   72     10953    11264   HEAVY2  3C0A  05CC  7343    1
   73     10958    11264   HEAVY2  40F2  B45D  B7CD    1
   74     10748    11264   HEAVY2  8F6B  5C16  7E0B    5
   75     11124    11264   HEAVY2  4DF7  8E85  4E9F    3
   76     10949    11264   HEAVY2  53E0  5DC6  62E7    1
   77     10746    11264   HEAVY2  934C  F890  7AF9    5
   78     10954    11264   HEAVY2  33FC  D762  7FFA    1
   79     10955    11264   HEAVY2  46FA  0753  6906    1


 File : amber_i.dms
 Created with DMS version 1.11 Evaluation
 Creation date : Fri Mar  1 09:35:22 1996
 Lowest track in archive : 0
 Highest track in archive : 79
 Packed data size : 785719
 Unpacked data size : 901120
 Disk type of archive : AmigaOS 1.0 OFS
 Compression mode used : HEAVY2
 General info : None
 Info Header CRC : A197

 Track   Plength  Ulength  Cmode   USUM  HCRC  DCRC Cflag
 ------  -------  -------  ------  ----  ----  ---- -----
    0     10199    11264   HEAVY2  11E0  E930  F35F    7
    1     10954    11264   HEAVY2  29EC  7A2D  898A    1
    2     10949    11264   HEAVY2  5AE5  11D5  8815    1
    3     10956    11264   HEAVY2  33FB  EA7E  2986    1
    4     10709    11264   HEAVY2  3CA2  4A73  3BC4    5
    5     11130    11264   HEAVY2  55F0  4319  8D61    3
    6     10957    11264   HEAVY2  7FB4  23D0  C93A    1
    7     10722    11264   HEAVY2  C43F  E6C2  254E    5
    8     10957    11264   HEAVY2  4EEE  DE46  7F8D    1
    9     10947    11264   HEAVY2  36F1  FAE1  D995    1
   10     10866    11264   HEAVY2  65A6  C476  0732    7
   11     10964    11264   HEAVY2  6BD4  20E1  318B    1
   12     10956    11264   HEAVY2  1617  F55D  A2BF    1
   13     10952    11264   HEAVY2  3A06  2961  E21D    1
   14     10719    11264   HEAVY2  7399  C59F  ABE7    5
   15     11128    11264   HEAVY2  3EEC  0768  1FC2    3
   16     10954    11264   HEAVY2  3606  44B6  1872    1
   17     10721    11264   HEAVY2  707D  2D97  5902    5
   18     10956    11264   HEAVY2  3EDE  5C2F  EEEB    1
   19     10953    11264   HEAVY2  41EB  87F2  1DB8    1
   20     10889    11264   HEAVY2  A86C  7A92  CF35    7
   21     10956    11264   HEAVY2  68D7  7768  EE6E    1
   22     10950    11264   HEAVY2  65D4  2D1C  6084    1
   23     10955    11264   HEAVY2  54E3  C1AB  26BD    1
   24     10721    11264   HEAVY2  6691  216E  8E37    5
   25     11123    11264   HEAVY2  47FA  43D5  54CB    3
   26     10953    11264   HEAVY2  1029  636F  6C01    1
   27     10715    11264   HEAVY2  6C97  4011  50B4    5
   28     10955    11264   HEAVY2  48F4  5362  943E    1
   29     10951    11264   HEAVY2  2906  C31F  C5EA    1
   30     10888    11264   HEAVY2  9158  BF1F  41A5    7
   31     10949    11264   HEAVY2  1310  928F  76E4    1
   32     10953    11264   HEAVY2  4DEE  ABA1  A667    1
   33     10957    11264   HEAVY2  5FDD  6AF9  F9D0    1
   34     10727    11264   HEAVY2  8176  C7A6  D921    5
   35     11321    11264   HEAVY2  6AD6  21CA  3B82    3
   36     11006    11264   HEAVY2  2D05  B4E6  B836    1
   37     10643    11264   HEAVY2  61A2  3F60  2865    5
   38      4079    11264   HEAVY2  BB6A  1210  77B2    5
   39         5    11264   HEAVY2  0000  7B12  2D70    5
   40      9639    11264   HEAVY2  004F  7D62  CE65    5
   41     10824    11264   HEAVY2  49E9  36C0  EAA9    1
   42     10893    11264   HEAVY2  BC62  6862  FFA6    3
   43     10501    11264   HEAVY2  A107  31FC  34A0    5
   44     10771    11264   HEAVY2  8645  8FFE  97F1    1
   45     10742    11264   HEAVY2  4AC9  16A2  1512    1
   46     10518    11264   HEAVY2  F457  724C  36C0    5
   47     10916    11264   HEAVY2  D855  D88C  FF9A    3
   48     10669    11264   HEAVY2  C399  8B41  5602    1
   49     10730    11264   HEAVY2  A985  18F0  D39C    1
   50     10382    11264   HEAVY2  D312  8040  C41C    5
   51     10832    11264   HEAVY2  73A1  5011  49EC    1
   52      6559    11264   HEAVY2  1653  EA73  F328    7
   53         4    11264   HEAVY2  0000  D2B6  946F    5
   54         2    11264   HEAVY2  0000  0E18  D162    5
   55      3861    11264   HEAVY2  F57B  A79B  C234    5
   56      2406    11264   HEAVY2  4368  3E62  B87D    5
   57      4480    11264   HEAVY2  2703  42B2  C976    5
   58      9238    11264   HEAVY2  8ED0  3307  AB11    5
   59      8249    11264   HEAVY2  8A69  9BF9  CA12    5
   60      8317    11264   HEAVY2  5820  6017  2B95    5
   61     10118    11264   HEAVY2  C9B7  E10D  8DF5    5
   62     10555    11264   HEAVY2  F26E  558F  A378    7
   63      9204    11264   HEAVY2  74FE  539C  62D0    5
   64      9476    11264   HEAVY2  1F8B  8CCE  3B47    5
   65      8894    11264   HEAVY2  D9B7  9C5D  2EB9    5
   66      7817    11264   HEAVY2  5622  ED54  BAAB    5
   67      9429    11264   HEAVY2  9FBA  42F5  6FE0    7
   68     11009    11264   HEAVY2  0B18  43E2  0505    1
   69     11003    11264   HEAVY2  46E6  27B2  A63A    1
   70     10767    11264   HEAVY2  7A98  F382  BB7D    5
   71     11008    11264   HEAVY2  4EF2  B8B5  8892    1
   72     11124    11264   HEAVY2  3FE9  D624  92EA    3
   73     10947    11264   HEAVY2  43E1  55E8  1E1D    1
   74     10741    11264   HEAVY2  8E5E  6FF5  8DD8    5
   75     10951    11264   HEAVY2  3BFA  016C  47DA    1
   76     10943    11264   HEAVY2  1608  D175  0D35    1
   77     10931    11264   HEAVY2  9155  1ADF  E80E    7
   78     10961    11264   HEAVY2  3DFB  A6F6  4B55    1
   79     10963    11264   HEAVY2  56D4  9846  7FCE    1

